\relax 
\providecommand\hyper@newdestlabel[2]{}
\catcode`"\active
\catcode`<\active
\catcode`>\active
\@nameuse{es@quoting}
\providecommand\HyperFirstAtBeginDocument{\AtBeginDocument}
\HyperFirstAtBeginDocument{\ifx\hyper@anchor\@undefined
\global\let\oldcontentsline\contentsline
\gdef\contentsline#1#2#3#4{\oldcontentsline{#1}{#2}{#3}}
\global\let\oldnewlabel\newlabel
\gdef\newlabel#1#2{\newlabelxx{#1}#2}
\gdef\newlabelxx#1#2#3#4#5#6{\oldnewlabel{#1}{{#2}{#3}}}
\AtEndDocument{\ifx\hyper@anchor\@undefined
\let\contentsline\oldcontentsline
\let\newlabel\oldnewlabel
\fi}
\fi}
\global\let\hyper@last\relax 
\gdef\HyperFirstAtBeginDocument#1{#1}
\providecommand\HyField@AuxAddToFields[1]{}
\providecommand\HyField@AuxAddToCoFields[2]{}
\select@language{spanish}
\@writefile{toc}{\select@language{spanish}}
\@writefile{lof}{\select@language{spanish}}
\@writefile{lot}{\select@language{spanish}}
\@writefile{toc}{\contentsline {section}{\numberline {1}Introducci\IeC {\'o}n}{1}{section.1}}
\@writefile{toc}{\contentsline {section}{\numberline {2}Modelo del dominio}{1}{section.2}}
\@writefile{toc}{\contentsline {subsection}{\numberline {2.1}Descripci\IeC {\'o}n textual}{1}{subsection.2.1}}
\@writefile{toc}{\contentsline {subsection}{\numberline {2.2}Gr\IeC {\'a}fico del modelo}{2}{subsection.2.2}}
\@writefile{toc}{\contentsline {section}{\numberline {3}Diagramas de Secuencia del Sistema}{3}{section.3}}
\@writefile{toc}{\contentsline {subsection}{\numberline {3.1}Consultar solicitudes de amistad}{3}{subsection.3.1}}
\@writefile{toc}{\contentsline {subsection}{\numberline {3.2}Darse de baja}{3}{subsection.3.2}}
\@writefile{toc}{\contentsline {subsection}{\numberline {3.3}Solicitar amistad}{4}{subsection.3.3}}
\@writefile{toc}{\contentsline {subsection}{\numberline {3.4}Responder solicitud de amistad}{4}{subsection.3.4}}
\@writefile{toc}{\contentsline {subsection}{\numberline {3.5}Visitar perfil de un usuario}{5}{subsection.3.5}}
\@writefile{toc}{\contentsline {subsection}{\numberline {3.6}Ver amigos del usuario}{5}{subsection.3.6}}
\@writefile{toc}{\contentsline {subsection}{\numberline {3.7}Ver amigos}{6}{subsection.3.7}}
\@writefile{toc}{\contentsline {subsection}{\numberline {3.8}Publicar entrada}{7}{subsection.3.8}}
\@writefile{toc}{\contentsline {subsection}{\numberline {3.9}Darse de alta con DNI electr\IeC {\'o}nico}{7}{subsection.3.9}}
\@writefile{toc}{\contentsline {subsection}{\numberline {3.10}Darse de alta como empresa}{8}{subsection.3.10}}
\@writefile{toc}{\contentsline {subsection}{\numberline {3.11}Darse de alta}{8}{subsection.3.11}}
