\relax 
\providecommand\hyper@newdestlabel[2]{}
\catcode`"\active
\catcode`<\active
\catcode`>\active
\@nameuse{es@quoting}
\providecommand\HyperFirstAtBeginDocument{\AtBeginDocument}
\HyperFirstAtBeginDocument{\ifx\hyper@anchor\@undefined
\global\let\oldcontentsline\contentsline
\gdef\contentsline#1#2#3#4{\oldcontentsline{#1}{#2}{#3}}
\global\let\oldnewlabel\newlabel
\gdef\newlabel#1#2{\newlabelxx{#1}#2}
\gdef\newlabelxx#1#2#3#4#5#6{\oldnewlabel{#1}{{#2}{#3}}}
\AtEndDocument{\ifx\hyper@anchor\@undefined
\let\contentsline\oldcontentsline
\let\newlabel\oldnewlabel
\fi}
\fi}
\global\let\hyper@last\relax 
\gdef\HyperFirstAtBeginDocument#1{#1}
\providecommand\HyField@AuxAddToFields[1]{}
\providecommand\HyField@AuxAddToCoFields[2]{}
\select@language{spanish}
\@writefile{toc}{\select@language{spanish}}
\@writefile{lof}{\select@language{spanish}}
\@writefile{lot}{\select@language{spanish}}
\@writefile{toc}{\contentsline {section}{\numberline {1}Arquitectura l\IeC {\'o}gica}{1}{section.1}}
\@writefile{toc}{\contentsline {subsection}{\numberline {1.1}Diagramas de paquetes}{1}{subsection.1.1}}
\@writefile{toc}{\contentsline {subsection}{\numberline {1.2}Explicaci\IeC {\'o}n}{1}{subsection.1.2}}
\@writefile{toc}{\contentsline {section}{\numberline {2}Realizaci\IeC {\'o}n de casos de uso}{2}{section.2}}
\@writefile{toc}{\contentsline {subsection}{\numberline {2.1}Consultar solicitudes de amistad}{2}{subsection.2.1}}
\@writefile{toc}{\contentsline {subsubsection}{\numberline {2.1.1}Flujo de eventos}{2}{subsubsection.2.1.1}}
\@writefile{toc}{\contentsline {subsubsection}{\numberline {2.1.2}Diagramas de interacci\IeC {\'o}n}{3}{subsubsection.2.1.2}}
\@writefile{toc}{\contentsline {subsubsection}{\numberline {2.1.3}Objetos participantes}{3}{subsubsection.2.1.3}}
\@writefile{toc}{\contentsline {subsubsection}{\numberline {2.1.4}Diagrama de clases}{4}{subsubsection.2.1.4}}
\@writefile{toc}{\contentsline {subsubsection}{\numberline {2.1.5}Requisitos derivados}{4}{subsubsection.2.1.5}}
\@writefile{toc}{\contentsline {subsection}{\numberline {2.2}Darse de baja}{4}{subsection.2.2}}
\@writefile{toc}{\contentsline {subsubsection}{\numberline {2.2.1}Flujo de eventos}{4}{subsubsection.2.2.1}}
\@writefile{toc}{\contentsline {subsubsection}{\numberline {2.2.2}Diagramas de interacci\IeC {\'o}n}{5}{subsubsection.2.2.2}}
\@writefile{toc}{\contentsline {subsubsection}{\numberline {2.2.3}Objetos participantes}{5}{subsubsection.2.2.3}}
\@writefile{toc}{\contentsline {subsubsection}{\numberline {2.2.4}Diagrama de clases}{6}{subsubsection.2.2.4}}
\@writefile{toc}{\contentsline {subsubsection}{\numberline {2.2.5}Requisitos derivados}{6}{subsubsection.2.2.5}}
\@writefile{toc}{\contentsline {subsection}{\numberline {2.3}Solicitar amistad}{6}{subsection.2.3}}
\@writefile{toc}{\contentsline {subsubsection}{\numberline {2.3.1}Flujo de eventos}{6}{subsubsection.2.3.1}}
\@writefile{toc}{\contentsline {subsubsection}{\numberline {2.3.2}Diagramas de interacci\IeC {\'o}n}{7}{subsubsection.2.3.2}}
\@writefile{toc}{\contentsline {subsubsection}{\numberline {2.3.3}Objetos participantes}{7}{subsubsection.2.3.3}}
\@writefile{toc}{\contentsline {subsubsection}{\numberline {2.3.4}Diagrama de clases}{8}{subsubsection.2.3.4}}
\@writefile{toc}{\contentsline {subsubsection}{\numberline {2.3.5}Requisitos derivados}{8}{subsubsection.2.3.5}}
\@writefile{toc}{\contentsline {subsection}{\numberline {2.4}Responder solicitud de amistad}{8}{subsection.2.4}}
\@writefile{toc}{\contentsline {subsubsection}{\numberline {2.4.1}Flujo de eventos}{8}{subsubsection.2.4.1}}
\@writefile{toc}{\contentsline {subsubsection}{\numberline {2.4.2}Diagramas de interacci\IeC {\'o}n}{9}{subsubsection.2.4.2}}
\@writefile{toc}{\contentsline {subsubsection}{\numberline {2.4.3}Objetos participantes}{9}{subsubsection.2.4.3}}
\@writefile{toc}{\contentsline {subsubsection}{\numberline {2.4.4}Diagrama de clases}{10}{subsubsection.2.4.4}}
\@writefile{toc}{\contentsline {subsubsection}{\numberline {2.4.5}Requisitos derivados}{10}{subsubsection.2.4.5}}
\@writefile{toc}{\contentsline {subsection}{\numberline {2.5}Visitar perfil de un usuario}{10}{subsection.2.5}}
\@writefile{toc}{\contentsline {subsubsection}{\numberline {2.5.1}Flujo de eventos}{10}{subsubsection.2.5.1}}
\@writefile{toc}{\contentsline {subsubsection}{\numberline {2.5.2}Diagramas de interacci\IeC {\'o}n}{10}{subsubsection.2.5.2}}
\@writefile{toc}{\contentsline {subsubsection}{\numberline {2.5.3}Objetos participantes}{10}{subsubsection.2.5.3}}
\@writefile{toc}{\contentsline {subsubsection}{\numberline {2.5.4}Diagrama de clases}{11}{subsubsection.2.5.4}}
\@writefile{toc}{\contentsline {subsubsection}{\numberline {2.5.5}Requisitos derivados}{11}{subsubsection.2.5.5}}
\@writefile{toc}{\contentsline {subsection}{\numberline {2.6}Ver amigos del usuario}{11}{subsection.2.6}}
\@writefile{toc}{\contentsline {subsubsection}{\numberline {2.6.1}Flujo de eventos}{11}{subsubsection.2.6.1}}
\@writefile{toc}{\contentsline {subsubsection}{\numberline {2.6.2}Diagramas de interacci\IeC {\'o}n}{11}{subsubsection.2.6.2}}
\@writefile{toc}{\contentsline {subsubsection}{\numberline {2.6.3}Objetos participantes}{11}{subsubsection.2.6.3}}
\@writefile{toc}{\contentsline {subsubsection}{\numberline {2.6.4}Diagrama de clases}{12}{subsubsection.2.6.4}}
\@writefile{toc}{\contentsline {subsubsection}{\numberline {2.6.5}Requisitos derivados}{12}{subsubsection.2.6.5}}
\@writefile{toc}{\contentsline {subsection}{\numberline {2.7}Ver amigos}{12}{subsection.2.7}}
\@writefile{toc}{\contentsline {subsubsection}{\numberline {2.7.1}Flujo de eventos}{12}{subsubsection.2.7.1}}
\@writefile{toc}{\contentsline {subsubsection}{\numberline {2.7.2}Diagramas de interacci\IeC {\'o}n}{12}{subsubsection.2.7.2}}
\@writefile{toc}{\contentsline {subsubsection}{\numberline {2.7.3}Objetos participantes}{12}{subsubsection.2.7.3}}
\@writefile{toc}{\contentsline {subsubsection}{\numberline {2.7.4}Diagrama de clases}{13}{subsubsection.2.7.4}}
\@writefile{toc}{\contentsline {subsubsection}{\numberline {2.7.5}Requisitos derivados}{13}{subsubsection.2.7.5}}
\@writefile{toc}{\contentsline {subsection}{\numberline {2.8}Publicar entrada}{13}{subsection.2.8}}
\@writefile{toc}{\contentsline {subsubsection}{\numberline {2.8.1}Flujo de eventos}{13}{subsubsection.2.8.1}}
\@writefile{toc}{\contentsline {subsubsection}{\numberline {2.8.2}Diagramas de interacci\IeC {\'o}n}{13}{subsubsection.2.8.2}}
\@writefile{toc}{\contentsline {subsubsection}{\numberline {2.8.3}Objetos participantes}{13}{subsubsection.2.8.3}}
\@writefile{toc}{\contentsline {subsubsection}{\numberline {2.8.4}Diagrama de clases}{14}{subsubsection.2.8.4}}
\@writefile{toc}{\contentsline {subsubsection}{\numberline {2.8.5}Requisitos derivados}{14}{subsubsection.2.8.5}}
\@writefile{toc}{\contentsline {subsection}{\numberline {2.9}Darse de alta con DNI electr\IeC {\'o}nico}{14}{subsection.2.9}}
\@writefile{toc}{\contentsline {subsubsection}{\numberline {2.9.1}Flujo de eventos}{14}{subsubsection.2.9.1}}
\@writefile{toc}{\contentsline {subsubsection}{\numberline {2.9.2}Diagramas de interacci\IeC {\'o}n}{15}{subsubsection.2.9.2}}
\@writefile{toc}{\contentsline {subsubsection}{\numberline {2.9.3}Objetos participantes}{16}{subsubsection.2.9.3}}
\@writefile{toc}{\contentsline {subsubsection}{\numberline {2.9.4}Diagrama de clases}{17}{subsubsection.2.9.4}}
\@writefile{toc}{\contentsline {subsubsection}{\numberline {2.9.5}Requisitos derivados}{17}{subsubsection.2.9.5}}
\@writefile{toc}{\contentsline {subsection}{\numberline {2.10}Darse de alta como empresa}{17}{subsection.2.10}}
\@writefile{toc}{\contentsline {subsubsection}{\numberline {2.10.1}Flujo de eventos}{17}{subsubsection.2.10.1}}
\@writefile{toc}{\contentsline {subsubsection}{\numberline {2.10.2}Diagramas de interacci\IeC {\'o}n}{18}{subsubsection.2.10.2}}
\@writefile{toc}{\contentsline {subsubsection}{\numberline {2.10.3}Objetos participantes}{18}{subsubsection.2.10.3}}
\@writefile{toc}{\contentsline {subsubsection}{\numberline {2.10.4}Diagrama de clases}{19}{subsubsection.2.10.4}}
\@writefile{toc}{\contentsline {subsubsection}{\numberline {2.10.5}Requisitos derivados}{19}{subsubsection.2.10.5}}
\@writefile{toc}{\contentsline {subsection}{\numberline {2.11}Darse de alta}{19}{subsection.2.11}}
\@writefile{toc}{\contentsline {subsubsection}{\numberline {2.11.1}Flujo de eventos}{19}{subsubsection.2.11.1}}
\@writefile{toc}{\contentsline {subsubsection}{\numberline {2.11.2}Diagramas de interacci\IeC {\'o}n}{20}{subsubsection.2.11.2}}
\@writefile{toc}{\contentsline {subsubsection}{\numberline {2.11.3}Objetos participantes}{20}{subsubsection.2.11.3}}
\@writefile{toc}{\contentsline {subsubsection}{\numberline {2.11.4}Diagrama de clases}{22}{subsubsection.2.11.4}}
\@writefile{toc}{\contentsline {subsubsection}{\numberline {2.11.5}Requisitos derivados}{23}{subsubsection.2.11.5}}
